C:\Users\amit\eclipse-workspace\suvideals\src\main\java\com\suvideals\qa\pages\LoginPageSuvideals.java
C:\Users\amit\eclipse-workspace\suvideals\src\main\java\com\suvideals\qa\base\TestBaseSuvideals.java
C:\Users\amit\eclipse-workspace\suvideals\src\test\java\suvidealsTestcases\RegisterPageSuvideals_TC.java
C:\Users\amit\eclipse-workspace\suvideals\src\main\java\com\suvideals\qa\pages\RegisterPageSuvideals.java
C:\Users\amit\eclipse-workspace\suvideals\src\main\java\com\suvideals\qa\pages\HomePageSuvideals.java
C:\Users\amit\eclipse-workspace\suvideals\src\test\java\suvidealsTestcases\HomePageSuvideals_TC.java
C:\Users\amit\eclipse-workspace\suvideals\src\test\java\suvidealsTestcases\LoginPageSuvideals_TC.java
